00000001001000110100010101100111100010011010101111001101111011111111111011011100101110101001100001110110010101000011001000010000
00001111000101010111000111001001010001111101100111101000010110010000110010110111101011011101011010101111011111110110011110011000
54776F204F6E65204E696E652054776F
5468617473206D79204B756E67204675


11111111000010111000010001001010000010000101001110111111011111000110100100110100101010110100001101100100000101001000111110111001

0123456789abcdeffedcba9876543210
0f1571c947d9e8590cb7add6af7f6798

00000000000000000000000000000000000000000000000000000000000000000000000000000000000000000000000000000000000000000000000000000000
00000000000000000000000000000000000000000000000000000000000000000000000000000000000000000000000000000000000000000000000000000000

11001110010001001111010010011000100010001001001011001000001100110100111001110010111101111111000101000001111101111111000101000001
10000011001101001110011100101111011111110001010000011100111001000100111101001001100010001000100100101100000001011001101111001101




00110010010000111111011010101000100010000101101000110000100011010011000100110001100110001010001011100000001101110000011100110100
00101011011111100001010100010110001010001010111011010010101001101010101111110111000101011000100000001001110011110100111100111100






3243f6a8885a308d313198a2e0370734
2b7e151628aed2a6abf7158809cf4f3c



// take the following inputs
